…
``` r
#looking at outliers
f1merged_hybrid %>%
  filter(grid == 0)
```

    ## # A tibble: 27 × 27
    ##    raceId  year round racename         date       driverId driverRef    surname 
    ##     <dbl> <dbl> <dbl> <chr>            <date>        <dbl> <chr>        <chr>   
    ##  1    931  2015     6 Monaco Grand Pr… 2015-05-24      832 sainz        Sainz   
    ##  2    926  2015     1 Australian Gran… 2015-03-15      822 bottas       Bottas  
    ##  3    927  2015     2 Malaysian Grand… 2015-03-29      829 stevens      Stevens 
    ##  4    953  2016     6 Monaco Grand Pr… 2016-05-29      830 max_verstap… Verstap…
    ##  5    953  2016     6 Monaco Grand Pr… 2016-05-29      831 nasr         Nasr    
    ##  6    956  2016     9 Austrian Grand … 2016-07-03       13 massa        Massa   
    ##  7    956  2016     9 Austrian Grand … 2016-07-03      826 kvyat        Kvyat   
    ##  8    969  2017     1 Australian Gran… 2017-03-26      817 ricciardo    Ricciar…
    ##  9    983  2017    15 Malaysian Grand… 2017-10-01        8 raikkonen    Räikkön…
    ## 10    998  2018    10 British Grand P… 2018-07-08      843 brendon_har… Hartley 
    ## # … with 17 more rows, and 19 more variables: constructorId <dbl>,
    ## #   constructorRef <chr>, constructorname <chr>, constructornat <chr>,
    ## #   resultId <dbl>, number <dbl>, grid <dbl>, position <dbl>,
    ## #   positionText <chr>, positionOrder <dbl>, points <dbl>, laps <dbl>,
    ## #   time <chr>, milliseconds <dbl>, fastestLap <dbl>, rank <dbl>,
    ## #   fastestLapTime <chr>, fastestLapSpeed <dbl>, statusId <dbl>
…
``` r
ret_season <- f1merged_hybrid %>%
  filter(constructorname %in% key_teams & positionText == "R") %>%
  group_by(year, constructorname) %>%
  count(constructorname) %>%
  summarise(retirements = n, .groups = "drop")



ret_season
```

    ## # A tibble: 35 × 3
    ##     year constructorname retirements
    ##    <dbl> <chr>                 <int>
    ##  1  2014 Ferrari                   3
    ##  2  2014 McLaren                   2
    ##  3  2014 Mercedes                  5
    ##  4  2014 Red Bull                  5
    ##  5  2014 Williams                  4
    ##  6  2015 Ferrari                   6
    ##  7  2015 McLaren                  12
    ##  8  2015 Mercedes                  2
    ##  9  2015 Red Bull                  4
    ## 10  2015 Williams                  3
    ## # … with 25 more rows

``` r
points_season <- f1merged_hybrid %>%
  filter(constructorname %in% key_teams) %>%
  group_by(year, constructorname) %>%
  summarise(total_points = sum(points), .groups = "drop")

points_season
```

    ## # A tibble: 35 × 3
    ##     year constructorname total_points
    ##    <dbl> <chr>                  <dbl>
    ##  1  2014 Ferrari                  216
    ##  2  2014 McLaren                  181
    ##  3  2014 Mercedes                 701
    ##  4  2014 Red Bull                 405
    ##  5  2014 Williams                 320
    ##  6  2015 Ferrari                  428
    ##  7  2015 McLaren                   27
    ##  8  2015 Mercedes                 703
    ##  9  2015 Red Bull                 187
    ## 10  2015 Williams                 257
    ## # … with 25 more rows
…
``` r
#very suspicious outlying times
 stops_merged %>%
filter(constructorname %in% key_teams & !is.na(milliseconds)) %>%
   arrange(desc(milliseconds)) %>%
   relocate(year, racename, driverId, duration, milliseconds)
```

    ## # A tibble: 2,491 × 30
    ##     year racename         driverId duration milliseconds raceId round date      
    ##    <dbl> <chr>               <dbl> <chr>           <dbl>  <dbl> <dbl> <date>    
    ##  1  2016 Brazilian Grand…       20 33:30.6…      2010637    967    20 2016-11-13
    ##  2  2016 Brazilian Grand…        1 33:30.3…      2010361    967    20 2016-11-13
    ##  3  2016 Brazilian Grand…       18 33:30.0…      2010062    967    20 2016-11-13
    ##  4  2016 Brazilian Grand…        3 33:29.7…      2009747    967    20 2016-11-13
    ##  5  2016 Brazilian Grand…      830 33:29.6…      2009643    967    20 2016-11-13
    ##  6  2016 Brazilian Grand…       13 33:29.6…      2009630    967    20 2016-11-13
    ##  7  2016 Brazilian Grand…        4 33:28.7…      2008789    967    20 2016-11-13
    ##  8  2016 Brazilian Grand…      817 33:28.6…      2008600    967    20 2016-11-13
    ##  9  2016 Brazilian Grand…      822 33:28.5…      2008595    967    20 2016-11-13
    ## 10  2017 Azerbaijan Gran…        8 26:23.8…      1583848    976     8 2017-06-25
    ## # … with 2,481 more rows, and 22 more variables: driverRef <chr>,
    ## #   surname <chr>, constructorId <dbl>, constructorRef <chr>,
    ## #   constructorname <chr>, constructornat <chr>, resultId <dbl>, number <dbl>,
    ## #   grid <dbl>, position <dbl>, positionText <chr>, positionOrder <dbl>,
    ## #   points <dbl>, laps <dbl>, fastestLap <dbl>, rank <dbl>,
    ## #   fastestLapTime <chr>, fastestLapSpeed <dbl>, statusId <dbl>, stop <dbl>,
    ## #   lap <dbl>, time <time>
…
    ## `summarise()` has grouped output by 'year'. You can override using the `.groups` argument.

``` r
stops_points_season <- inner_join(points_season, stops_season)
```

    ## Joining, by = c("year", "constructorname")

``` r
stops_points_season
```

    ## # A tibble: 35 × 4
    ##     year constructorname total_points median_stoptime
    ##    <dbl> <chr>                  <dbl>           <dbl>
    ##  1  2014 Ferrari                  216          23928.
    ##  2  2014 McLaren                  181          23804 
    ##  3  2014 Mercedes                 701          23886.
    ##  4  2014 Red Bull                 405          23443 
    ##  5  2014 Williams                 320          24420.
    ##  6  2015 Ferrari                  428          24158 
    ##  7  2015 McLaren                   27          23806.
    ##  8  2015 Mercedes                 703          23165 
    ##  9  2015 Red Bull                 187          23997 
    ## 10  2015 Williams                 257          24412 
    ## # … with 25 more rows
…
